Market,Wave,Metric,Freq_CCS,Freq_GWP,Diff,P_Val,Sig
USA,7.0,Brand familiarity : Google,0.7393543754666169,0.7429205818628634,0.0035662063962464963,0.7747290659677253,no
USA,7.0,Brand familiarity : Apple,0.5488978702438556,0.5486667089295171,-0.00023116131433853493,0.9870936542852586,no
USA,7.0,Brand familiarity : Facebook,0.6818853252660665,0.6872330187087188,0.00534769344265229,0.6875710589289776,no
USA,7.0,Brand familiarity : Microsoft,0.5865850969361275,0.591812117971623,0.005227021035495549,0.7103152145811635,no
USA,7.0,Brand familiarity : Amazon,0.7547835499509641,0.7617022054473891,0.006918655496425008,0.5699157267295285,no
USA,7.0,Brand familiarity : YouTube,0.6832228375093816,0.6772205452471878,-0.006002292262193842,0.651075360341526,no
USA,7.0,Brand favorability : Google,0.7371236174772684,0.7402501631703718,0.003126545693103444,0.8024746663848246,no
USA,7.0,Brand favorability : Apple,0.5678198013344486,0.5629352409506843,-0.004884560383764391,0.7314997264041496,no
USA,7.0,Brand favorability : Facebook,0.4394737056552383,0.43855409404394474,-0.0009196116112935582,0.9483683305219728,no
USA,7.0,Brand favorability : Microsoft,0.6449810824643402,0.6429110013460644,-0.0020700811182757795,0.8798658085229849,no
USA,7.0,Brand favorability : Amazon,0.7324232871857196,0.7226733440806982,-0.00974994310502142,0.4413072330063619,no
USA,7.0,Brand favorability : YouTube,0.6836920792552722,0.6745707650554618,-0.009121314199810437,0.49229231626814407,no
USA,7.0,Brand advocacy : Google,0.5700113058209215,0.5715063393281626,0.001495033507241117,0.9154451813370146,no
USA,7.0,Brand advocacy : Apple,0.41993352208065776,0.4147656942779873,-0.005167827802670444,0.7151608048724989,no
USA,7.0,Brand advocacy : Facebook,0.28054216692346695,0.2808963408680303,0.0003541739445633296,0.9780261176940825,no
USA,7.0,Brand advocacy : Microsoft,0.43559922990966327,0.43747259179194065,0.00187336188227738,0.894941630941557,no
USA,7.0,Brand advocacy : Amazon,0.5830374389177182,0.573700770463964,-0.009336668453754249,0.5061897121690686,no
USA,7.0,Brand advocacy : YouTube,0.507593097897694,0.5005285743160215,-0.007064523581672533,0.6195122380059599,no
USA,7.0,Brand pers attributes : Trustworthy - Google,0.4589897617978186,0.4550176928725013,-0.0039720689253172625,0.7792597055755834,no
USA,7.0,Brand pers attributes : Trustworthy - Apple,0.4007889782433704,0.4170173317742202,0.01622835353084978,0.5999875302411102,no
USA,7.0,Brand pers attributes : Trustworthy - Facebook,0.17255986192433226,0.18582403322527957,0.013264171300947314,0.5827916495690615,no
USA,7.0,Brand pers attributes : Trustworthy - Microsoft,0.42449343677133844,0.42108242337602886,-0.003411013395309581,0.9131206799038887,no
USA,7.0,Brand pers attributes : Trustworthy - Amazon,0.5531556088550945,0.547156893009548,-0.005998715845546565,0.8517446964735087,no
USA,7.0,Brand pers attributes : Trustworthy - YouTube,0.36803275064697755,0.3582446131482548,-0.00978813749872276,0.7468102118181852,no
USA,7.0,Brand pers attributes : Responsible - Google,0.47162600051569564,0.4634045707926812,-0.008221429723014428,0.5624480148821451,no
USA,7.0,Brand pers attributes : Responsible - Apple,0.4068119569172899,0.40128437905314146,-0.005527577864148425,0.8579634072116908,no
USA,7.0,Brand pers attributes : Responsible - Facebook,0.19950528665235726,0.2176132603780365,0.01810797372567924,0.47901647270254544,no
USA,7.0,Brand pers attributes : Responsible - Microsoft,0.4338500236079877,0.4216052182160636,-0.012244805391924074,0.6957462192014159,no
USA,7.0,Brand pers attributes : Responsible - Amazon,0.5207674192543919,0.5191480782813507,-0.0016193409730411723,0.9599338826238455,no
USA,7.0,Brand pers attributes : Responsible - YouTube,0.3500338393917696,0.35160057880070306,0.0015667394089334818,0.958467609897611,no
USA,7.0,Brand pers attributes : Threatening - Google,0.13190530988836024,0.145064391248128,0.01315908135976776,0.18051090260602853,no
USA,7.0,Brand pers attributes : Threatening - Apple,0.11597826624333617,0.12467647412778883,0.008698207884452663,0.6710596206500217,no
USA,7.0,Brand pers attributes : Threatening - Facebook,0.20281392591936676,0.2175539074925318,0.014739981573165056,0.5655716800770791,no
USA,7.0,Brand pers attributes : Threatening - Microsoft,0.10982898168116044,0.12285848611147335,0.013029504430312908,0.5208832261974501,no
USA,7.0,Brand pers attributes : Threatening - Amazon,0.13390613615864305,0.1548851642893027,0.02097902813065966,0.3547532390877426,no
USA,7.0,Brand pers attributes : Threatening - YouTube,0.08331787797287088,0.08874774287306933,0.00542986490019845,0.758694065620698,no
USA,7.0,Brand pers attributes : Arrogant - Google,0.16471796935698413,0.17293522684679596,0.008217257489811836,0.44065470101803417,no
USA,7.0,Brand pers attributes : Arrogant - Apple,0.25277537526926475,0.25512933680907757,0.002353961539812821,0.9315307530733261,no
USA,7.0,Brand pers attributes : Arrogant - Facebook,0.3083595954336884,0.31052447137143563,0.0021648759377472238,0.9407052148628718,no
USA,7.0,Brand pers attributes : Arrogant - Microsoft,0.1380476916151898,0.1397967640330517,0.0017490724178619022,0.9363127727869374,no
USA,7.0,Brand pers attributes : Arrogant - Amazon,0.2104903176738755,0.23480636374027394,0.02431604606639845,0.36487791666999403,no
USA,7.0,Brand pers attributes : Arrogant - YouTube,0.12229151495295047,0.13349475732692234,0.01120324237397187,0.5945860562076866,no
USA,7.0,Brand pers attributes : Visionary - Google,0.5657554505297884,0.5718620430702825,0.006106592540494171,0.6647014346712654,no
USA,7.0,Brand pers attributes : Visionary - Apple,0.5527327672538327,0.5472082244613545,-0.00552454279247816,0.8599601322643979,no
USA,7.0,Brand pers attributes : Visionary - Facebook,0.33014317197289555,0.35613390779619586,0.025990735823300304,0.38457155127335163,no
USA,7.0,Brand pers attributes : Visionary - Microsoft,0.4827499646891313,0.4902041687818241,0.007454204092692818,0.8137028441039642,no
USA,7.0,Brand pers attributes : Visionary - Amazon,0.582790570178291,0.5774989260845064,-0.0052916440937845755,0.8680142821359469,no
USA,7.0,Brand pers attributes : Visionary - YouTube,0.4608350301933393,0.47189474486686667,0.011059714673527343,0.7250889804454483,no
USA,7.0,Brand pers attributes : Helpful - Google,0.701534314533207,0.7009321258374871,-0.0006021886957199296,0.9631141002820309,no
USA,7.0,Brand pers attributes : Helpful - Apple,0.46819357277869483,0.4674791685282483,-0.0007144042504465542,0.9818518062991706,no
USA,7.0,Brand pers attributes : Helpful - Facebook,0.2780400360994922,0.2721562708373664,-0.005883765262125806,0.8342363006110758,no
USA,7.0,Brand pers attributes : Helpful - Microsoft,0.5215344119804532,0.518158068233642,-0.0033763437468112834,0.9149615679535652,no
USA,7.0,Brand pers attributes : Helpful - Amazon,0.6331522633776,0.6242104723808095,-0.008941790996790488,0.7742278055322855,no
USA,7.0,Brand pers attributes : Helpful - YouTube,0.592383971611264,0.5993914302221865,0.007007458610922557,0.8208036593247809,no
USA,7.0,Brand pers attributes : Fun - Google,0.46996338440589985,0.4669630629885302,-0.003000321417369667,0.8326138505791572,no
USA,7.0,Brand pers attributes : Fun - Apple,0.4521025805545326,0.4453160810234232,-0.006786499531109436,0.828374775782277,no
USA,7.0,Brand pers attributes : Fun - Facebook,0.3661255407515817,0.38115779959625334,0.015032258844671631,0.6216367835711396,no
USA,7.0,Brand pers attributes : Fun - Microsoft,0.3208662662688827,0.32014996216466585,-0.0007163041042168583,0.9806506938680999,no
USA,7.0,Brand pers attributes : Fun - Amazon,0.4527357783289195,0.45720524638876314,0.004469468059843662,0.8893624849735904,no
USA,7.0,Brand pers attributes : Fun - YouTube,0.6505893914791766,0.6440561803185312,-0.006533211160645425,0.8282884077017629,no
USA,7.0,Brand func attributes : Offers user-friendly products and services - Google,0.6126014139938348,0.6136825677995041,0.0010811538056693104,0.9378028680230326,no
USA,7.0,Brand func attributes : Offers user-friendly products and services - Apple,0.5074482989478897,0.5198753875767983,0.012427088628908622,0.6928280602161137,no
USA,7.0,Brand func attributes : Offers user-friendly products and services - Facebook,0.31228878724264286,0.3255272110699478,0.013238423827304946,0.6518752950410087,no
USA,7.0,Brand func attributes : Offers user-friendly products and services - Microsoft,0.4837630933642838,0.4962655738273087,0.012502480463024879,0.6927111444709355,no
USA,7.0,Brand func attributes : Offers user-friendly products and services - Amazon,0.6339894142318692,0.6390461834993173,0.005056769267448136,0.8705669215448646,no
USA,7.0,Brand func attributes : Offers user-friendly products and services - YouTube,0.537429850981232,0.5315122815498748,-0.005917569431357128,0.8507340691827086,no
USA,7.0,Brand func attributes : Always coming up with new ideas and innovations - Google,0.5426196859239955,0.5418355655681905,-0.0007841203558049958,0.9558810160005062,no
USA,7.0,Brand func attributes : Always coming up with new ideas and innovations - Apple,0.5427560194429091,0.5533252457916779,0.010569226348768779,0.7358138641445249,no
USA,7.0,Brand func attributes : Always coming up with new ideas and innovations - Facebook,0.24090207059276497,0.25386448531467826,0.012962414721913285,0.6332680025819684,no
USA,7.0,Brand func attributes : Always coming up with new ideas and innovations - Microsoft,0.4535008451563233,0.4587902473934213,0.0052894022370980065,0.8667401802454091,no
USA,7.0,Brand func attributes : Always coming up with new ideas and innovations - Amazon,0.49807953291774043,0.5069169863692026,0.00883745345146214,0.7841249942395376,no
USA,7.0,Brand func attributes : Always coming up with new ideas and innovations - YouTube,0.4049863924624657,0.40456974024717834,-0.00041665221528736085,0.9892571215087205,no
USA,7.0,Brand func attributes : Offers products and services that help me save time - Google,0.5944438418381135,0.5907338771793711,-0.003709964658742404,0.7906939382968468,no
USA,7.0,Brand func attributes : Offers products and services that help me save time - Apple,0.4334019479069011,0.4503403629968411,0.016938415089939984,0.5878992910914569,no
USA,7.0,Brand func attributes : Offers products and services that help me save time - Facebook,0.2057338989702264,0.2121474946289415,0.006413595658715104,0.802153354217549,no
USA,7.0,Brand func attributes : Offers products and services that help me save time - Microsoft,0.4597857281603975,0.4679684149710518,0.008182686810654316,0.7954317486657345,no
USA,7.0,Brand func attributes : Offers products and services that help me save time - Amazon,0.6248110063618345,0.6362247443871336,0.011413738025299103,0.7139939904221135,no
USA,7.0,Brand func attributes : Offers products and services that help me save time - YouTube,0.4158969874837673,0.4346713752352937,0.0187743877515264,0.5469133179519612,no
USA,7.0,Brand func attributes : Offers products and services I cannot live without - Google,0.4065058491893954,0.41375843454052136,0.00725258535112594,0.6042384341403451,no
USA,7.0,Brand func attributes : Offers products and services I cannot live without - Apple,0.30853183049842753,0.33745156186713315,0.028919731368705626,0.3258814128026277,no
USA,7.0,Brand func attributes : Offers products and services I cannot live without - Facebook,0.16156672695932356,0.1810352841853009,0.019468557225977345,0.4118378569619461,no
USA,7.0,Brand func attributes : Offers products and services I cannot live without - Microsoft,0.32448674376538,0.32709002646969626,0.0026032827043162565,0.9300614832777458,no
USA,7.0,Brand func attributes : Offers products and services I cannot live without - Amazon,0.41641535500299487,0.42765514160609613,0.011239786603101265,0.724287870094638,no
USA,7.0,Brand func attributes : Offers products and services I cannot live without - YouTube,0.29323647969733974,0.30250011586063263,0.009263636163292899,0.747963371377339,no
USA,7.0,Brand func attributes : Offers products and services that help me enjoy my life - Google,0.5330233510625741,0.5398545602084462,0.006831209145872097,0.6301396915064126,no
USA,7.0,Brand func attributes : Offers products and services that help me enjoy my life - Apple,0.44305864849673143,0.4596864202616405,0.016627771764909094,0.5955184444629362,no
USA,7.0,Brand func attributes : Offers products and services that help me enjoy my life - Facebook,0.28545667290873955,0.29735260667150004,0.011895933762760491,0.6775601278314092,no
USA,7.0,Brand func attributes : Offers products and services that help me enjoy my life - Microsoft,0.4319948980084162,0.43538548733872484,0.0033905893303086687,0.9139138872993788,no
USA,7.0,Brand func attributes : Offers products and services that help me enjoy my life - Amazon,0.5996338018732735,0.6112786809136781,0.011644879040404565,0.7119305417014301,no
USA,7.0,Brand func attributes : Offers products and services that help me enjoy my life - YouTube,0.5295317347759709,0.5278868572891303,-0.0016448774868406124,0.9583138624799117,no
USA,7.0,Brand func attributes : Offers cutting edge products and services - Google,0.5287556315170803,0.5268498379341955,-0.001905793582884785,0.893252825413553,no
USA,7.0,Brand func attributes : Offers cutting edge products and services - Apple,0.5117391929996187,0.5299965185143333,0.018257325514714595,0.5614847208025049,no
USA,7.0,Brand func attributes : Offers cutting edge products and services - Facebook,0.1814020625523885,0.19533119036638338,0.013929127813994885,0.5715315000331525,no
USA,7.0,Brand func attributes : Offers cutting edge products and services - Microsoft,0.46199261561999444,0.4693222974215148,0.007329681801520382,0.816399487557874,no
USA,7.0,Brand func attributes : Offers cutting edge products and services - Amazon,0.5365297028133797,0.5428478875262568,0.00631818471287704,0.844241980072427,no
USA,7.0,Brand func attributes : Offers cutting edge products and services - YouTube,0.3580637329846209,0.3665120236830241,0.008448290698403194,0.7803909363288712,no
USA,7.0,Brand func attributes : Is the leader in developing artificial intelligence technology - Google,0.42094924260850597,0.4267894909899708,0.005840248381464852,0.6778291865358184,no
USA,7.0,Brand func attributes : Is the leader in developing artificial intelligence technology - Apple,0.3455295425115726,0.34595008830258733,0.0004205457910147481,0.9887915730931693,no
USA,7.0,Brand func attributes : Is the leader in developing artificial intelligence technology - Facebook,0.16649276251962872,0.17709335068963378,0.01060058817000506,0.6553419830133953,no
USA,7.0,Brand func attributes : Is the leader in developing artificial intelligence technology - Microsoft,0.33580827101740063,0.3385114053645385,0.00270313434713787,0.9280098307003848,no
USA,7.0,Brand func attributes : Is the leader in developing artificial intelligence technology - Amazon,0.3597741954462971,0.3618715718688269,0.0020973764225298286,0.9460321038566666,no
USA,7.0,Brand func attributes : Is the leader in developing artificial intelligence technology - YouTube,0.2445879019433344,0.2742791324267602,0.029691230483425812,0.28252369723477844,no
USA,7.0,Brand func attributes : Offers products and services that are for everyone - Google,0.6141819442129094,0.6084107034191149,-0.005771240793794541,0.677283157859861,no
USA,7.0,Brand func attributes : Offers products and services that are for everyone - Apple,0.44791571700293625,0.4580545230110547,0.01013880600811845,0.7462472092316028,no
USA,7.0,Brand func attributes : Offers products and services that are for everyone - Facebook,0.29867362718539253,0.31822936238766014,0.01955573520226761,0.5012634622854597,no
USA,7.0,Brand func attributes : Offers products and services that are for everyone - Microsoft,0.5209759141426131,0.5240989468978344,0.0031230327552213,0.9213019643131986,no
USA,7.0,Brand func attributes : Offers products and services that are for everyone - Amazon,0.6828187123244455,0.6785605529122021,-0.00425815941224339,0.8874238470086717,no
USA,7.0,Brand func attributes : Offers products and services that are for everyone - YouTube,0.5543100073480327,0.5529940919839307,-0.0013159153641020271,0.9665070004236129,no
USA,7.0,Brand func attributes : Offers helpful products and services - Google,0.6243412020404671,0.6200220047058986,-0.004319197334568425,0.7541717965944716,no
USA,7.0,Brand func attributes : Offers helpful products and services - Apple,0.5023323624526806,0.514709380401404,0.012377017948723368,0.694069690125614,no
USA,7.0,Brand func attributes : Offers helpful products and services - Facebook,0.24451187675078256,0.2556807899726323,0.011168913221849763,0.6820849015692083,no
USA,7.0,Brand func attributes : Offers helpful products and services - Microsoft,0.5359626847699399,0.5449082693052141,0.008945584535274165,0.7766965566466955,no
USA,7.0,Brand func attributes : Offers helpful products and services - Amazon,0.6332071171490298,0.6352909199379745,0.002083802788944711,0.9465373499331575,no
USA,7.0,Brand func attributes : Offers helpful products and services - YouTube,0.5101652619122841,0.4983426525970749,-0.011822609315209176,0.7075985041297312,no
USA,7.0,Company familiarity : Google,0.4525844019210172,0.46143777419102644,0.008853372270009263,0.532150556531779,no
USA,7.0,Company familiarity : Apple,0.3762446400038705,0.3819545624221624,0.005709922418291935,0.6819313567559084,no
USA,7.0,Company familiarity : Facebook,0.4170649481885907,0.42336878132663663,0.0063038331380459445,0.6553814224368351,no
USA,7.0,Company familiarity : Microsoft,0.3881649201964321,0.3982806053106625,0.010115685114230388,0.4690703096602924,no
USA,7.0,Company familiarity : Amazon,0.5014381688158304,0.5060112301548768,0.004573061339046447,0.7477619454202031,no
USA,7.0,Company familiarity : YouTube,0.4064459253658364,0.4125977587938881,0.006151833428051701,0.6602009619286697,no
USA,7.0,Company overall trust : Google,0.4505633332257772,0.44927881059400127,-0.0012845226317759195,0.9276822405814278,no
USA,7.0,Company overall trust : Apple,0.3530602572846865,0.349520621957342,-0.0035396353273444703,0.9062226858175779,no
USA,7.0,Company overall trust : Facebook,0.16394954563507574,0.1653255409491021,0.0013759953140263514,0.9530066414375558,no
USA,7.0,Company overall trust : Microsoft,0.41699506436578504,0.4159968398389798,-0.000998224526805258,0.9744760059105877,no
USA,7.0,Company overall trust : Amazon,0.5403570515539097,0.5266270275219315,-0.013730024031978205,0.6696945208928677,no
USA,7.0,Company overall trust : YouTube,0.37499944712024674,0.3758819698932542,0.0008825227730074325,0.9769369261234278,no
USA,7.0,Company contribution attributes : Google - It feels like part of our culture,0.5713260385748684,0.5736708212556104,0.002344782680742008,0.8676813959086578,no
USA,7.0,Company contribution attributes : Google - It is committed in the long term,0.41939536612580736,0.4281642684246876,0.008768902298880221,0.5327817801182384,no
USA,7.0,Company contribution attributes : Google - It cares about me,0.30993780689453837,0.31235620013779875,0.002418393243260375,0.854311229049008,no
USA,7.0,Company contribution attributes : Google - It works to prevent the spread of misinformation,0.3528717843721388,0.35561592670552405,0.002744142333385269,0.8401674516533089,no
USA,7.0,Company contribution attributes : Google - It follows ethical business practices,0.3564136560811925,0.3581739903815427,0.0017603343003501637,0.8972573716160985,no
USA,7.0,Company contribution attributes : Google - It actively supports equal rights for all,0.386406783021282,0.3947619081807177,0.008355125159435706,0.5471900547101842,no
USA,7.0,Company contribution attributes : Google - It actively supports education for all,0.4136205765703035,0.4207630319204244,0.007142455350120924,0.6106377882202094,no
USA,7.0,Company contribution attributes : Google - It contributes to the economy,0.49333529837472084,0.5044215613548999,0.011086262980179062,0.4357487071332651,no
USA,7.0,Company contribution attributes : Apple - It feels like part of our culture,0.5127519200362731,0.5213959346351366,0.008644014598863436,0.7834506745709355,no
USA,7.0,Company contribution attributes : Apple - It is committed in the long term,0.3557954848706497,0.36634145779950983,0.010545972928860115,0.7272209049358318,no
USA,7.0,Company contribution attributes : Apple - It cares about me,0.24621136157812756,0.2471822265362263,0.0009708649580987272,0.9714574423906881,no
USA,7.0,Company contribution attributes : Apple - It works to prevent the spread of misinformation,0.28814006808648607,0.2926033062034044,0.004463238116918344,0.875868899181429,no
USA,7.0,Company contribution attributes : Apple - It follows ethical business practices,0.28481426476844107,0.28121640995278935,-0.0035978548156517243,0.8990226696693784,no
USA,7.0,Company contribution attributes : Apple - It actively supports equal rights for all,0.31065729020135385,0.3050489815027017,-0.005608308698652142,0.8469343670029414,no
USA,7.0,Company contribution attributes : Apple - It actively supports education for all,0.32977996412976185,0.323643871288498,-0.006136092841263874,0.8353365762784388,no
USA,7.0,Company contribution attributes : Apple - It contributes to the economy,0.4784214489046549,0.4861456093394154,0.007724160434760541,0.8060003394955646,no
USA,7.0,Company contribution attributes : Facebook - It feels like part of our culture,0.4355262118826917,0.45059841990290345,0.015072208020211753,0.6298636786923109,no
USA,7.0,Company contribution attributes : Facebook - It is committed in the long term,0.25913610654148,0.27837638285778277,0.019240276316302762,0.49061973484522126,no
USA,7.0,Company contribution attributes : Facebook - It cares about me,0.1444048021440188,0.1509716420445703,0.006566839900551513,0.768777878880937,no
USA,7.0,Company contribution attributes : Facebook - It works to prevent the spread of misinformation,0.1747166757803849,0.1735077756985223,-0.0012089000818626128,0.9596163272522853,no
USA,7.0,Company contribution attributes : Facebook - It follows ethical business practices,0.19216444179192935,0.20534077318253882,0.013176331390609475,0.5999894709716604,no
USA,7.0,Company contribution attributes : Facebook - It actively supports equal rights for all,0.2606375775548359,0.2737230351826476,0.013085457627811714,0.6385743325262305,no
USA,7.0,Company contribution attributes : Facebook - It actively supports education for all,0.21111702094292845,0.22012494986379402,0.009007928920865577,0.7279223479178227,no
USA,7.0,Company contribution attributes : Facebook - It contributes to the economy,0.27650203020350883,0.29572736919669473,0.019225338993185903,0.49927136501186054,no
USA,7.0,Company contribution attributes : Microsoft - It feels like part of our culture,0.4945287700603125,0.4879583915076228,-0.00657037855268966,0.8354885751020806,no
USA,7.0,Company contribution attributes : Microsoft - It is committed in the long term,0.41763577310793676,0.4343759821747384,0.016740209066801626,0.5927185164143571,no
USA,7.0,Company contribution attributes : Microsoft - It cares about me,0.26772633938217005,0.27835600480321687,0.010629665421046819,0.7061912352340429,no
USA,7.0,Company contribution attributes : Microsoft - It works to prevent the spread of misinformation,0.30375995436949027,0.30056674749524004,-0.0031932068742502318,0.9125052908237039,no
USA,7.0,Company contribution attributes : Microsoft - It follows ethical business practices,0.3792889902588375,0.3859608433212977,0.006671853062460209,0.8282854473299432,no
USA,7.0,Company contribution attributes : Microsoft - It actively supports equal rights for all,0.33613314875239614,0.3462221120854251,0.010088963333028944,0.7366936812970837,no
USA,7.0,Company contribution attributes : Microsoft - It actively supports education for all,0.4216785535535863,0.429381732782719,0.007703179229132717,0.8055445399324523,no
USA,7.0,Company contribution attributes : Microsoft - It contributes to the economy,0.5042733681708097,0.5272860325644051,0.023012664393595395,0.4668543874005562,no
USA,7.0,Company contribution attributes : Amazon - It feels like part of our culture,0.5888021511414532,0.5810798456985715,-0.007722305442881661,0.8080739887012649,no
USA,7.0,Company contribution attributes : Amazon - It is committed in the long term,0.4369341102021419,0.4324615282209565,-0.004472581981185386,0.8887877555760151,no
USA,7.0,Company contribution attributes : Amazon - It cares about me,0.3364449294386425,0.34673761911219464,0.010292689673552124,0.7365718730262021,no
USA,7.0,Company contribution attributes : Amazon - It works to prevent the spread of misinformation,0.34070655519761156,0.3660296324638253,0.025323077266213745,0.4115619768670573,no
USA,7.0,Company contribution attributes : Amazon - It follows ethical business practices,0.403422974050563,0.4028394085110506,-0.0005835655395123873,0.9852888441865095,no
USA,7.0,Company contribution attributes : Amazon - It actively supports equal rights for all,0.374563317614995,0.37863505034289957,0.0040717327279045645,0.8963713239430877,no
USA,7.0,Company contribution attributes : Amazon - It actively supports education for all,0.3599267116760716,0.37417739585522014,0.014250684179148543,0.6467640797882432,no
USA,7.0,Company contribution attributes : Amazon - It contributes to the economy,0.5675690609403888,0.5628604208618065,-0.0047086400785822935,0.8829603175649203,no
USA,7.0,Company contribution attributes : YouTube - It feels like part of our culture,0.5003215781021569,0.5054443409550669,0.005122762852909912,0.8708955437017982,no
USA,7.0,Company contribution attributes : YouTube - It is committed in the long term,0.3255185701921069,0.34506924315423654,0.019550672962129645,0.5112147674117344,no
USA,7.0,Company contribution attributes : YouTube - It cares about me,0.24514566751904995,0.2555745425616305,0.010428875042580527,0.7025523133933671,no
USA,7.0,Company contribution attributes : YouTube - It works to prevent the spread of misinformation,0.25236991438506856,0.2744879542496205,0.022118039864551964,0.4256959120503443,no
USA,7.0,Company contribution attributes : YouTube - It follows ethical business practices,0.28070861244078493,0.3095126806550173,0.02880406821423237,0.31639160840915803,no
USA,7.0,Company contribution attributes : YouTube - It actively supports equal rights for all,0.31529427470417876,0.3356023657953218,0.020308091091143066,0.49172022638999136,no
USA,7.0,Company contribution attributes : YouTube - It actively supports education for all,0.3160366125145154,0.3406836520392636,0.02464703952474817,0.4050804429159922,no
USA,7.0,Company contribution attributes : YouTube - It contributes to the economy,0.34713565258725954,0.35792051014624554,0.010784857558986005,0.7202779369490171,no
USA,7.0,Company privacy attributes : Google - My personal information is safe with this company,0.41820649093792744,0.4177484889574241,-0.00045800198050333085,0.9739610342812974,no
USA,7.0,Company privacy attributes : Google - It gives me tools and/or settings to manage what personal data is collected and used,0.4969039402632141,0.5005596700736659,0.0036557298104517577,0.7971732209376923,no
USA,7.0,Company privacy attributes : Google - It respects my privacy,0.4260621968801576,0.4281198556774283,0.002057658797270656,0.8837468005817002,no
USA,7.0,Company privacy attributes : Google - It is transparent about how my data is collected and used,0.38700126044036703,0.3902451524396613,0.003243891999294257,0.8150386130678591,no
USA,7.0,Company privacy attributes : Google - It is a leader in security technology,0.453756384374047,0.45702201350704225,0.0032656291329952736,0.8177027095685767,no
USA,7.0,Company privacy attributes : Google - It keeps my data safe from hackers,0.4343139264900456,0.43742140533882373,0.0031074788487781557,0.8256510290494301,no
USA,7.0,Company privacy attributes : Google - It is committed to keeping people safe online,0.49780032664818424,0.5048726990430887,0.007072372394904491,0.6190437177061983,no
USA,7.0,Company privacy attributes : Google - It does not sell my personal information to advertisers without my permission,0.35125244950214674,0.3535303865530607,0.0022779370509139474,0.8668861879231629,no
USA,7.0,Company privacy attributes : Google - It supports a safe online environment for children,0.4308836262387033,0.43009356286367617,-0.000790063375027128,0.9552717356895333,no
USA,7.0,Company privacy attributes : Google - It gives parents tools to keep their children safe on the internet,0.49849435843909917,0.498285470111301,-0.00020888832779819566,0.9882831555926546,no
USA,7.0,Company privacy attributes : Google - It works to prevent the spread of inappropriate and violent content,0.4359888346207339,0.44043039934094297,0.004441564720209068,0.7530163240129439,no
USA,7.0,Company privacy attributes : Apple - My personal information is safe with this company,0.4043186396526586,0.4165029708875782,0.012184331234919632,0.6939373123742443,no
USA,7.0,Company privacy attributes : Apple - It gives me tools and/or settings to manage what personal data is collected and used,0.4423632841005384,0.4524647641502489,0.01010148004971051,0.7468758098530652,no
USA,7.0,Company privacy attributes : Apple - It respects my privacy,0.4259309460487351,0.4241316937093853,-0.0017992523393497994,0.9538878958600849,no
USA,7.0,Company privacy attributes : Apple - It is transparent about how my data is collected and used,0.36239260972320136,0.364788493994171,0.0023958842709696504,0.936928758876151,no
USA,7.0,Company privacy attributes : Apple - It is a leader in security technology,0.4206450788002232,0.42725713844551094,0.006612059645287716,0.8316627656928135,no
USA,7.0,Company privacy attributes : Apple - It keeps my data safe from hackers,0.4219650302846101,0.42714439571391366,0.005179365429303584,0.8677797155007467,no
USA,7.0,Company privacy attributes : Apple - It is committed to keeping people safe online,0.47523976475728075,0.4843838411232322,0.009144076365951437,0.7712123242981324,no
USA,7.0,Company privacy attributes : Apple - It does not sell my personal information to advertisers without my permission,0.36008073170097515,0.353843707412506,-0.006237024288469173,0.8361429909208622,no
USA,7.0,Company privacy attributes : Apple - It supports a safe online environment for children,0.4252902414745871,0.42960089004368274,0.004310648569095632,0.8898963024128252,no
USA,7.0,Company privacy attributes : Apple - It gives parents tools to keep their children safe on the internet,0.46020085208109146,0.46618543474879415,0.005984582667702687,0.8487787527967499,no
USA,7.0,Company privacy attributes : Apple - It works to prevent the spread of inappropriate and violent content,0.3821520753794714,0.39076913202114244,0.008617056641671061,0.7785981678506895,no
USA,7.0,Company privacy attributes : Facebook - My personal information is safe with this company,0.22042902674031314,0.22327917753214727,0.002850150791834122,0.9132404808264183,no
USA,7.0,Company privacy attributes : Facebook - It gives me tools and/or settings to manage what personal data is collected and used,0.3689060088492465,0.3789887898922878,0.010082781043041278,0.7406598918300289,no
USA,7.0,Company privacy attributes : Facebook - It respects my privacy,0.2491161144478535,0.24896220821360743,-0.0001539062342460762,0.9954899002081481,no
USA,7.0,Company privacy attributes : Facebook - It is transparent about how my data is collected and used,0.2395731880043909,0.2546782595967341,0.015105071592343228,0.5780786225319836,no
USA,7.0,Company privacy attributes : Facebook - It is a leader in security technology,0.21049566366788608,0.22201670990716735,0.011521046239281268,0.6567012630260427,no
USA,7.0,Company privacy attributes : Facebook - It keeps my data safe from hackers,0.21916730658015962,0.23036322969531103,0.011195923115151413,0.6701121785097577,no
USA,7.0,Company privacy attributes : Facebook - It is committed to keeping people safe online,0.2561814564486008,0.2706549702219405,0.014473513773339719,0.6017582352770463,no
USA,7.0,Company privacy attributes : Facebook - It does not sell my personal information to advertisers without my permission,0.19905528586520904,0.20540952265270826,0.006354236787499218,0.8016110496879065,no
USA,7.0,Company privacy attributes : Facebook - It supports a safe online environment for children,0.22258054326688925,0.2331257919780805,0.010545248711191252,0.6896683534027686,no
USA,7.0,Company privacy attributes : Facebook - It gives parents tools to keep their children safe on the internet,0.2903193272928848,0.30313167626055393,0.01281234896766914,0.6559815259692925,no
USA,7.0,Company privacy attributes : Facebook - It works to prevent the spread of inappropriate and violent content,0.29596309138740007,0.3175909699315617,0.02162787854416165,0.4563406572672022,no
USA,7.0,Company privacy attributes : Microsoft - My personal information is safe with this company,0.44277041783466814,0.4513111988499548,0.008540781015286658,0.7860612051418712,no
USA,7.0,Company privacy attributes : Microsoft - It gives me tools and/or settings to manage what personal data is collected and used,0.4777652378117802,0.4853659295747683,0.00760069176298811,0.8100525907162377,no
USA,7.0,Company privacy attributes : Microsoft - It respects my privacy,0.435566982466893,0.42903208235517326,-0.006534900111719755,0.834889255102679,no
USA,7.0,Company privacy attributes : Microsoft - It is transparent about how my data is collected and used,0.36697808123616427,0.377373599725445,0.01039551848928072,0.7340056266160548,no
USA,7.0,Company privacy attributes : Microsoft - It is a leader in security technology,0.4610725148081143,0.45279254770026517,-0.008279967107849118,0.7928289176093575,no
USA,7.0,Company privacy attributes : Microsoft - It keeps my data safe from hackers,0.42930249341247195,0.44201255064065303,0.012710057228181082,0.685460460121766,no
USA,7.0,Company privacy attributes : Microsoft - It is committed to keeping people safe online,0.4904390885709818,0.5069380433652619,0.016498954794280152,0.6020898028514154,no
USA,7.0,Company privacy attributes : Microsoft - It does not sell my personal information to advertisers without my permission,0.3542666120575232,0.35444208966063184,0.00017547760310865357,0.9953748649972407,no
USA,7.0,Company privacy attributes : Microsoft - It supports a safe online environment for children,0.43948042313298197,0.4532483491826198,0.013767926049637835,0.6616680157899857,no
USA,7.0,Company privacy attributes : Microsoft - It gives parents tools to keep their children safe on the internet,0.487148622076491,0.48115769447117507,-0.005990927605315943,0.8497642385068636,no
USA,7.0,Company privacy attributes : Microsoft - It works to prevent the spread of inappropriate and violent content,0.387202689531902,0.3974207632879455,0.0102180737560435,0.7408979982678856,no
USA,7.0,Company privacy attributes : Amazon - My personal information is safe with this company,0.5189765432559911,0.5319909495329711,0.013014406276980028,0.6862542302715959,no
USA,7.0,Company privacy attributes : Amazon - It gives me tools and/or settings to manage what personal data is collected and used,0.4790391889652416,0.49043154154226465,0.011392352577023035,0.7238580397486374,no
USA,7.0,Company privacy attributes : Amazon - It respects my privacy,0.502291668330312,0.5007061591247813,-0.0015855092055306885,0.9608013648801765,no
USA,7.0,Company privacy attributes : Amazon - It is transparent about how my data is collected and used,0.4067667857573928,0.4126377544560253,0.005870968698632517,0.8532026561670107,no
USA,7.0,Company privacy attributes : Amazon - It is a leader in security technology,0.41952960265840955,0.4118147896047145,-0.0077148130536950354,0.8083027954005173,no
USA,7.0,Company privacy attributes : Amazon - It keeps my data safe from hackers,0.5066446697415201,0.5127297578961777,0.006085088154657581,0.850358312655531,no
USA,7.0,Company privacy attributes : Amazon - It is committed to keeping people safe online,0.5062361116622891,0.508744600528649,0.0025084888663599036,0.9380133503614672,no
USA,7.0,Company privacy attributes : Amazon - It does not sell my personal information to advertisers without my permission,0.4231882009371075,0.4207325419060633,-0.0024556590310442217,0.9385719547833431,no
USA,7.0,Company privacy attributes : Amazon - It supports a safe online environment for children,0.4304276360576459,0.42990092047714906,-0.0005267155804968282,0.9868444470016355,no
USA,7.0,Company privacy attributes : Amazon - It gives parents tools to keep their children safe on the internet,0.3985593141143483,0.3938197294959253,-0.004739584618422998,0.880615515909321,no
USA,7.0,Company privacy attributes : Amazon - It works to prevent the spread of inappropriate and violent content,0.4213270492637807,0.4349322026114934,0.013605153347712728,0.6699843604348992,no
USA,7.0,Company privacy attributes : YouTube - My personal information is safe with this company,0.32765355056029705,0.3453529989465614,0.01769944838626436,0.5523722612439201,no
USA,7.0,Company privacy attributes : YouTube - It gives me tools and/or settings to manage what personal data is collected and used,0.38069319088656445,0.3890198277893751,0.008326636902810658,0.7860361280860202,no
USA,7.0,Company privacy attributes : YouTube - It respects my privacy,0.3724042128196538,0.37584434551370205,0.003440132694048248,0.9102125889642982,no
USA,7.0,Company privacy attributes : YouTube - It is transparent about how my data is collected and used,0.2997310907099521,0.319322085232499,0.019590994522546923,0.501419025811028,no
USA,7.0,Company privacy attributes : YouTube - It is a leader in security technology,0.2838895408679753,0.30031318000201324,0.016423639134037937,0.5666777547937218,no
USA,7.0,Company privacy attributes : YouTube - It keeps my data safe from hackers,0.33018294539948606,0.33151818275285366,0.001335237353367602,0.9640958474688976,no
USA,7.0,Company privacy attributes : YouTube - It is committed to keeping people safe online,0.3946667023240465,0.415975386946944,0.021308684622897534,0.49114147725657276,no
USA,7.0,Company privacy attributes : YouTube - It does not sell my personal information to advertisers without my permission,0.28494332081576806,0.30703115582940105,0.022087835013632984,0.4427228041331195,no
USA,7.0,Company privacy attributes : YouTube - It supports a safe online environment for children,0.3752976339286953,0.38362828527751347,0.008330651348818163,0.785372364663512,no
USA,7.0,Company privacy attributes : YouTube - It gives parents tools to keep their children safe on the internet,0.40668805098553695,0.4177995548136643,0.011111503828127367,0.7202876053452174,no
USA,7.0,Company privacy attributes : YouTube - It works to prevent the spread of inappropriate and violent content,0.3742032451353424,0.38354075370737073,0.009337508572028308,0.7601135379316684,no
USA,7.0,Company trust attributes : Google - To provide accurate information,0.473698663595979,0.4754255924305599,0.0017269288345808653,0.9032438695972429,no
USA,7.0,Company trust attributes : Google - To act responsibly as a company,0.4365858855123859,0.4367370286367979,0.00015114312441200095,0.9914532148532127,no
USA,7.0,Company trust attributes : Google - To provide excellent customer service,0.44995546202417425,0.4564110198990219,0.006455557874847639,0.6485023701719437,no
USA,7.0,Company trust attributes : Google - To make a positive contribution to society,0.4662932211472988,0.4751091092834116,0.008815888136112782,0.5347018381192363,no
USA,7.0,Company trust attributes : Google - To put the interests of users/customers above their own,0.34138025738440525,0.35294804738860536,0.011567790004200107,0.39303490647060046,no
USA,7.0,Company trust attributes : Google - To be truthful about how they use my data or personal information,0.3736465114163161,0.37438655394040715,0.0007400425240910447,0.957125348295746,no
USA,7.0,Company trust attributes : Google - To responsibly develop and use artificial intelligence,0.3918939719566467,0.3967118489176251,0.004817876960978407,0.7289370585314614,no
USA,7.0,Company trust attributes : Google - To never use my data in ways that harm me,0.36109062083816373,0.358720925304459,-0.002369695533704752,0.8622219265849784,no
USA,7.0,Company trust attributes : Google - To provide high quality products and services,0.5443358597782667,0.5454579880628506,0.001122128284583912,0.9368670144505382,no
USA,7.0,Company trust attributes : Apple - To provide accurate information,0.4058028406615896,0.4051117911074708,-0.0006910495541188055,0.9821595540773753,no
USA,7.0,Company trust attributes : Apple - To act responsibly as a company,0.3984028001512278,0.41221580902498833,0.013813008873760524,0.6548851398392674,no
USA,7.0,Company trust attributes : Apple - To provide excellent customer service,0.42186273215916226,0.43183412305057073,0.009971390891408471,0.7487537908171424,no
USA,7.0,Company trust attributes : Apple - To make a positive contribution to society,0.4047263498338474,0.4148499168454934,0.010123567011645962,0.7436392870695765,no
USA,7.0,Company trust attributes : Apple - To put the interests of users/customers above their own,0.29936985290926654,0.31039876856843107,0.011028915659164529,0.7034985588848852,no
USA,7.0,Company trust attributes : Apple - To be truthful about how they use my data or personal information,0.3614172707729919,0.3711359884321482,0.009718717659156273,0.7486057630175447,no
USA,7.0,Company trust attributes : Apple - To responsibly develop and use artificial intelligence,0.3780471115414726,0.3757724226994984,-0.0022746888419741818,0.9405537842071343,no
USA,7.0,Company trust attributes : Apple - To never use my data in ways that harm me,0.35979092301999444,0.35691997589635993,-0.002870947123634504,0.9242179402918116,no
USA,7.0,Company trust attributes : Apple - To provide high quality products and services,0.4993168602478018,0.5032868194528545,0.003969959205052664,0.8996163032617119,no
USA,7.0,Company trust attributes : Facebook - To provide accurate information,0.21128699646908747,0.21078619976415425,-0.0005007967049332207,0.9844474457883929,no
USA,7.0,Company trust attributes : Facebook - To act responsibly as a company,0.20699144445324927,0.21799801621945802,0.011006571766208756,0.6691303568601228,no
USA,7.0,Company trust attributes : Facebook - To provide excellent customer service,0.2100469564146798,0.22200630901679896,0.011959352602119167,0.6443978406050914,no
USA,7.0,Company trust attributes : Facebook - To make a positive contribution to society,0.2602055551011849,0.2735355740105296,0.013330018909344654,0.6321893141672119,no
USA,7.0,Company trust attributes : Facebook - To put the interests of users/customers above their own,0.1782946343776936,0.18716937781759152,0.008874743439897914,0.7153010721152602,no
USA,7.0,Company trust attributes : Facebook - To be truthful about how they use my data or personal information,0.19746625989084282,0.20468038484994566,0.007214124959102841,0.774971858428366,no
USA,7.0,Company trust attributes : Facebook - To responsibly develop and use artificial intelligence,0.17428985925442653,0.1825849377710044,0.008295078516577875,0.7307727997855713,no
USA,7.0,Company trust attributes : Facebook - To never use my data in ways that harm me,0.1869046764615984,0.19126085796808237,0.00435618150648398,0.8597488744165289,no
USA,7.0,Company trust attributes : Facebook - To provide high quality products and services,0.23570304969582745,0.23164307892609198,-0.004059970769735466,0.8788813022245565,no
USA,7.0,Company trust attributes : Microsoft - To provide accurate information,0.4841390638405708,0.48464032666597723,0.0005012628254064122,0.9873552471541787,no
USA,7.0,Company trust attributes : Microsoft - To act responsibly as a company,0.45775554323580425,0.4662039217179592,0.008448378482154961,0.788885846884827,no
USA,7.0,Company trust attributes : Microsoft - To provide excellent customer service,0.4359192665249371,0.4349256240856938,-0.0009936424392433252,0.9747383307309239,no
USA,7.0,Company trust attributes : Microsoft - To make a positive contribution to society,0.44815697911180097,0.4409444223104685,-0.0072125568013324814,0.818600475668422,no
USA,7.0,Company trust attributes : Microsoft - To put the interests of users/customers above their own,0.3329141689488501,0.3319264595612896,-0.0009877093875605425,0.9735712380253543,no
USA,7.0,Company trust attributes : Microsoft - To be truthful about how they use my data or personal information,0.370149704332893,0.3583054442319204,-0.011844260100972615,0.6973340938438664,no
USA,7.0,Company trust attributes : Microsoft - To responsibly develop and use artificial intelligence,0.3943406888506412,0.3967924081599437,0.0024517193093024914,0.9368530569377191,no
USA,7.0,Company trust attributes : Microsoft - To never use my data in ways that harm me,0.3462052900256142,0.3350592145695563,-0.011146075456057891,0.7101700359190461,no
USA,7.0,Company trust attributes : Microsoft - To provide high quality products and services,0.5266973212898959,0.5293321207005162,0.002634799410620281,0.9335371599693314,no
USA,7.0,Company trust attributes : Amazon - To provide accurate information,0.5320287527210924,0.5293082871243869,-0.002720465596705468,0.932668051904384,no
USA,7.0,Company trust attributes : Amazon - To act responsibly as a company,0.48125796057568776,0.4842559971889282,0.00299803661324044,0.925912427659314,no
USA,7.0,Company trust attributes : Amazon - To provide excellent customer service,0.588813593663263,0.5917451468942542,0.0029315532309911463,0.9263878099912017,no
USA,7.0,Company trust attributes : Amazon - To make a positive contribution to society,0.447649112609092,0.44283751013100897,-0.0048116024780830435,0.8807235449275521,no
USA,7.0,Company trust attributes : Amazon - To put the interests of users/customers above their own,0.37000789420895847,0.3881823129476718,0.018174418738713338,0.5614865653240428,no
USA,7.0,Company trust attributes : Amazon - To be truthful about how they use my data or personal information,0.4352497232802756,0.43726264483441435,0.0020129215541387357,0.9498379659947087,no
USA,7.0,Company trust attributes : Amazon - To responsibly develop and use artificial intelligence,0.38219108691838066,0.39676435857694475,0.014573271658564091,0.6432064936253341,no
USA,7.0,Company trust attributes : Amazon - To never use my data in ways that harm me,0.4420138886096866,0.44750520850752123,0.0054913198978346345,0.864011342731509,no
USA,7.0,Company trust attributes : Amazon - To provide high quality products and services,0.57495464939306,0.5714316421356809,-0.003523007257379085,0.9120949809122754,no
USA,7.0,Company trust attributes : YouTube - To provide accurate information,0.34790694889010193,0.356722625290417,0.008815676400315053,0.7697180147209983,no
USA,7.0,Company trust attributes : YouTube - To act responsibly as a company,0.33475890710944667,0.3463545212331687,0.011595614123722009,0.6979082785331259,no
USA,7.0,Company trust attributes : YouTube - To provide excellent customer service,0.32038950422922974,0.3283621980662588,0.007972693837029088,0.7870429186228183,no
USA,7.0,Company trust attributes : YouTube - To make a positive contribution to society,0.35428957196709215,0.35958729522327415,0.0052977232561819965,0.8607616938165727,no
USA,7.0,Company trust attributes : YouTube - To put the interests of users/customers above their own,0.28863858594174574,0.3029452244011631,0.014306638459417376,0.6190007763963079,no
USA,7.0,Company trust attributes : YouTube - To be truthful about how they use my data or personal information,0.29371038478717526,0.2994835488989394,0.005773164111764151,0.841091960523217,no
USA,7.0,Company trust attributes : YouTube - To responsibly develop and use artificial intelligence,0.24552409721727297,0.26706299096682445,0.02153889374955148,0.4338239062790459,no
USA,7.0,Company trust attributes : YouTube - To never use my data in ways that harm me,0.29930264681015356,0.30989317912324893,0.010590532313095369,0.7150920539048193,no
USA,7.0,Company trust attributes : YouTube - To provide high quality products and services,0.41497222594036176,0.40928201884725374,-0.005690207093108024,0.854505477716339,no
USA,7.0,Company motivation attributes : Google - Motivated by improving users' lives,0.5457491846315046,0.5555180771531286,0.00976889252162405,0.4899903274227895,no
USA,7.0,Company motivation attributes : Google - Motivated by benefiting society and culture,0.4992303182235205,0.5074992667289779,0.008268948505457452,0.5610116144091399,no
USA,7.0,Company motivation attributes : Google - Motivated by maximizing their profit,0.6438041995913777,0.6380830992204217,-0.005721100370955967,0.675064681826113,no
USA,7.0,Company motivation attributes : Google - Motivated by coming up with new ideas and innovations,0.674402093797658,0.6757365819403843,0.0013344881427262978,0.9202190485859847,no
USA,7.0,Company motivation attributes : Apple - Motivated by improving users' lives,0.4878299838202205,0.48771666242703815,-0.00011332139318237511,0.9971261302862113,no
USA,7.0,Company motivation attributes : Apple - Motivated by benefiting society and culture,0.44739694880167463,0.46117914987547787,0.013782201073803235,0.6601064078800556,no
USA,7.0,Company motivation attributes : Apple - Motivated by maximizing their profit,0.6641788992690494,0.6787465539137623,0.01456765464471288,0.6221570443181992,no
USA,7.0,Company motivation attributes : Apple - Motivated by coming up with new ideas and innovations,0.6208755014369528,0.6371837045696467,0.016308203132693877,0.591692657925468,no
USA,7.0,Company motivation attributes : Facebook - Motivated by improving users' lives,0.34525782399618044,0.35687035647000626,0.01161253247382582,0.6991832571190844,no
USA,7.0,Company motivation attributes : Facebook - Motivated by benefiting society and culture,0.32663690416610186,0.3444484550773268,0.017811550911224938,0.5490856662083237,no
USA,7.0,Company motivation attributes : Facebook - Motivated by maximizing their profit,0.6741865742451038,0.6770632590811377,0.0028766848360339825,0.9222496204723774,no
USA,7.0,Company motivation attributes : Facebook - Motivated by coming up with new ideas and innovations,0.4548539993306568,0.46833084075728765,0.013476841426630859,0.6676504527356848,no
USA,7.0,Company motivation attributes : Microsoft - Motivated by improving users' lives,0.5575358321493786,0.5659820543572011,0.00844622220782243,0.7879472884712171,no
USA,7.0,Company motivation attributes : Microsoft - Motivated by benefiting society and culture,0.48147821694111426,0.497413746091769,0.01593552915065477,0.61447092587014,no
USA,7.0,Company motivation attributes : Microsoft - Motivated by maximizing their profit,0.6392257259890215,0.6563942749099643,0.017168548920942772,0.570061150209165,no
USA,7.0,Company motivation attributes : Microsoft - Motivated by coming up with new ideas and innovations,0.6686756598950836,0.6914981657743793,0.022822505879295685,0.4394226926335598,no
USA,7.0,Company motivation attributes : Amazon - Motivated by improving users' lives,0.5393601454912945,0.538490110307364,-0.0008700351839304732,0.9784186166765654,no
USA,7.0,Company motivation attributes : Amazon - Motivated by benefiting society and culture,0.47195846844987943,0.4797122955000915,0.007753827050212048,0.809837158684368,no
USA,7.0,Company motivation attributes : Amazon - Motivated by maximizing their profit,0.7135535192194582,0.7075584828716593,-0.005995036347798854,0.8376541881981867,no
USA,7.0,Company motivation attributes : Amazon - Motivated by coming up with new ideas and innovations,0.6392446597217044,0.6219909002873145,-0.017253759434389893,0.579506407657667,no
USA,7.0,Company motivation attributes : YouTube - Motivated by improving users' lives,0.45835139784642154,0.46516450627873596,0.006813108432314419,0.8283796303870603,no
USA,7.0,Company motivation attributes : YouTube - Motivated by benefiting society and culture,0.46118795160503195,0.4739881661471589,0.012800214542126931,0.6840501123556466,no
USA,7.0,Company motivation attributes : YouTube - Motivated by maximizing their profit,0.651366670502198,0.6564342623411865,0.005067591838988528,0.8658210754289708,no
USA,7.0,Company motivation attributes : YouTube - Motivated by coming up with new ideas and innovations,0.5665892529983068,0.5654152901620823,-0.001173962836224507,0.970028509697552,no
USA,7.0,Company contribution attributes : Google - Helps small businesses grow,0.4050040797646726,0.4091678894863685,0.004163809721695888,0.7657682184606163,no
USA,7.0,Company contribution attributes : Google - Is working to improve computer science education,0.4390424743112067,0.4428392643744543,0.0037967900632476237,0.788079673650802,no
USA,7.0,Company contribution attributes : Google - Actively supports freedom of expression online,0.4256381472269658,0.4378725442420248,0.012234397015059018,0.3852666184505975,no
USA,7.0,Company contribution attributes : Google - Supports non-profit organizations,0.35695201845588276,0.3708136071489929,0.01386158869311016,0.311176563802132,no
USA,7.0,Company contribution attributes : Google - Is committed to environmental sustainability,0.3678358274778504,0.37454428804387085,0.00670846056602048,0.625481661771923,no
USA,7.0,Company contribution attributes : Google - Actively helps people during crises and natural disasters,0.3687524191602381,0.37697543883181134,0.00822301967157324,0.550010170634089,no
USA,7.0,"Company contribution attributes : Google - It provides products, tools, and trainings to help people find jobs, grow their skills, careers, or business",0.44416353512252355,0.4518738389922736,0.007710303869750079,0.5857493490146526,no
USA,7.0,Company contribution attributes : Google - Supports jobs growth in [country],0.4329096607454229,0.43855681564299015,0.00564715489756723,0.688914121008795,no
USA,7.0,Company contribution attributes : Google - It helps prepare people with the skills needed for the future of work,0.42833073417455864,0.4351329087324843,0.006802174557925644,0.6292875188426432,no
USA,7.0,Company contribution attributes : Google - Is committed to helping people maintain a healthy use of their products and services,0.4187485612964215,0.4273298304214671,0.008581269125045587,0.541490905995009,no
USA,7.0,Company contribution attributes : Apple - Helps small businesses grow,0.293588252441591,0.3142641675271596,0.020675915085568597,0.4751561141677487,no
USA,7.0,Company contribution attributes : Apple - Is working to improve computer science education,0.38815061276713164,0.40124484466487353,0.013094231897741893,0.6703966758818996,no
USA,7.0,Company contribution attributes : Apple - Actively supports freedom of expression online,0.3391920138055139,0.3429421562356621,0.0037501424301482067,0.8999871685772727,no
USA,7.0,Company contribution attributes : Apple - Supports non-profit organizations,0.2949405749273075,0.2967068431201787,0.0017662681928711788,0.9509749075678293,no
USA,7.0,Company contribution attributes : Apple - Is committed to environmental sustainability,0.3007667970459323,0.3076514708346784,0.006884673788746132,0.812083552508009,no
USA,7.0,Company contribution attributes : Apple - Actively helps people during crises and natural disasters,0.28980709863852194,0.29664250387958035,0.006835405241058412,0.8114607666051641,no
USA,7.0,"Company contribution attributes : Apple - It provides products, tools, and trainings to help people find jobs, grow their skills, careers, or business",0.3489523348067813,0.36568073318193106,0.016728398375149778,0.5791829148746619,no
USA,7.0,Company contribution attributes : Apple - Supports jobs growth in [country],0.35430474844821336,0.3717191956797059,0.017414447231492547,0.5650675877990468,no
USA,7.0,Company contribution attributes : Apple - It helps prepare people with the skills needed for the future of work,0.34839072934050463,0.3584167615262184,0.01002603218571374,0.7389750338873238,no
USA,7.0,Company contribution attributes : Apple - Is committed to helping people maintain a healthy use of their products and services,0.3469062842787889,0.35666276995583956,0.009756485677050675,0.7454898263491234,no
USA,7.0,Company contribution attributes : Facebook - Helps small businesses grow,0.28537208850570644,0.2982529232413105,0.01288083473560403,0.6526859015538438,no
USA,7.0,Company contribution attributes : Facebook - Is working to improve computer science education,0.20559863029101655,0.21688705245923626,0.011288422168219708,0.660493129233582,no
USA,7.0,Company contribution attributes : Facebook - Actively supports freedom of expression online,0.34486196485703535,0.37269146692845045,0.027829502071415102,0.3567689538209544,no
USA,7.0,Company contribution attributes : Facebook - Supports non-profit organizations,0.2567285954751034,0.28498592034574693,0.02825732487064353,0.31255132079460535,no
USA,7.0,Company contribution attributes : Facebook - Is committed to environmental sustainability,0.20282899926573172,0.2150292687895317,0.01220026952379999,0.6336227947095139,no
USA,7.0,Company contribution attributes : Facebook - Actively helps people during crises and natural disasters,0.24331201970237779,0.263515934298479,0.02020391459610124,0.4606754736004042,no
USA,7.0,"Company contribution attributes : Facebook - It provides products, tools, and trainings to help people find jobs, grow their skills, careers, or business",0.22920364568413998,0.24364009376577628,0.0144364480816363,0.5894379235039522,no
USA,7.0,Company contribution attributes : Facebook - Supports jobs growth in [country],0.21810290101453259,0.2355193094773562,0.017416408462823607,0.5089032815276284,no
USA,7.0,Company contribution attributes : Facebook - It helps prepare people with the skills needed for the future of work,0.1775811441044638,0.194910328944122,0.0173291848396582,0.47958289141203725,no
USA,7.0,Company contribution attributes : Facebook - Is committed to helping people maintain a healthy use of their products and services,0.21740652274484806,0.22829279813170675,0.010886275386858685,0.6777935840462432,no
USA,7.0,Company contribution attributes : Microsoft - Helps small businesses grow,0.41022355127823446,0.4167399807654273,0.006516429487192832,0.8343834917931097,no
USA,7.0,Company contribution attributes : Microsoft - Is working to improve computer science education,0.4827472125644376,0.4891024105021652,0.006355197937727597,0.8407651871392825,no
USA,7.0,Company contribution attributes : Microsoft - Actively supports freedom of expression online,0.3768421820446247,0.38882827439861883,0.011986092353994116,0.696815974218989,no
USA,7.0,Company contribution attributes : Microsoft - Supports non-profit organizations,0.3785576126174364,0.3782791478273044,-0.00027846479013204917,0.9927614652102812,no
USA,7.0,Company contribution attributes : Microsoft - Is committed to environmental sustainability,0.3385067746442595,0.3457390875896142,0.007232312945354702,0.8096537962421455,no
USA,7.0,Company contribution attributes : Microsoft - Actively helps people during crises and natural disasters,0.3419112194252405,0.3398733715740754,-0.00203784785116512,0.9458405196059005,no
USA,7.0,"Company contribution attributes : Microsoft - It provides products, tools, and trainings to help people find jobs, grow their skills, careers, or business",0.43911539462058696,0.451439657817661,0.012324263197074026,0.695192322621931,no
USA,7.0,Company contribution attributes : Microsoft - Supports jobs growth in [country],0.4107523120559227,0.41063726580152515,-0.0001150462543975661,0.9970517579468792,no
USA,7.0,Company contribution attributes : Microsoft - It helps prepare people with the skills needed for the future of work,0.446327007730309,0.449803973616329,0.0034769658860200336,0.9120322563113645,no
USA,7.0,Company contribution attributes : Microsoft - Is committed to helping people maintain a healthy use of their products and services,0.42055196677375384,0.43609071376425956,0.015538746990505725,0.6197751023418878,no
USA,7.0,Company contribution attributes : Amazon - Helps small businesses grow,0.388549367654965,0.3919576707589667,0.0034083031040016976,0.9137635125035917,no
USA,7.0,Company contribution attributes : Amazon - Is working to improve computer science education,0.31285783857175264,0.31136447872707906,-0.0014933598446735807,0.9601606966345,no
USA,7.0,Company contribution attributes : Amazon - Actively supports freedom of expression online,0.36451144060615404,0.3717738097199476,0.007262369113793576,0.8154610214301408,no
USA,7.0,Company contribution attributes : Amazon - Supports non-profit organizations,0.3646641357538648,0.3590045584079837,-0.005659577345881128,0.855158798243834,no
USA,7.0,Company contribution attributes : Amazon - Is committed to environmental sustainability,0.35157949072909667,0.36696273655308065,0.015383245823983982,0.6192110980085836,no
USA,7.0,Company contribution attributes : Amazon - Actively helps people during crises and natural disasters,0.3726596719035377,0.3712372953525441,-0.001422376550993587,0.9636195572211592,no
USA,7.0,"Company contribution attributes : Amazon - It provides products, tools, and trainings to help people find jobs, grow their skills, careers, or business",0.4119303573984284,0.4016725644834907,-0.010257792914937724,0.7462133551836898,no
USA,7.0,Company contribution attributes : Amazon - Supports jobs growth in [country],0.47943724024290413,0.4854846447261413,0.006047404483237151,0.8512106793020493,no
USA,7.0,Company contribution attributes : Amazon - It helps prepare people with the skills needed for the future of work,0.3436777857260986,0.3448211163319699,0.0011433306058712955,0.9702482676554927,no
USA,7.0,Company contribution attributes : Amazon - Is committed to helping people maintain a healthy use of their products and services,0.41284696015557404,0.41967347804307836,0.006826517887504324,0.8300450988028647,no
USA,7.0,Company contribution attributes : YouTube - Helps small businesses grow,0.3030350390669855,0.3021257166922997,-0.0009093223746857726,0.9749512672700071,no
USA,7.0,Company contribution attributes : YouTube - Is working to improve computer science education,0.29167087981059786,0.31218074541007734,0.020509865599479482,0.47850518107470696,no
USA,7.0,Company contribution attributes : YouTube - Actively supports freedom of expression online,0.44482627336576663,0.43008572427660463,-0.014740549089162003,0.6374018948876081,no
USA,7.0,Company contribution attributes : YouTube - Supports non-profit organizations,0.24090064397346195,0.26229515299785017,0.02139450902438822,0.4341108756269121,no
USA,7.0,Company contribution attributes : YouTube - Is committed to environmental sustainability,0.24984325292823922,0.2654343836575046,0.015591130729265379,0.5716995380471173,no
USA,7.0,Company contribution attributes : YouTube - Actively helps people during crises and natural disasters,0.27272793154618047,0.28241209971494774,0.009684168168767271,0.7315548921409007,no
USA,7.0,"Company contribution attributes : YouTube - It provides products, tools, and trainings to help people find jobs, grow their skills, careers, or business",0.3230067788867166,0.3143744642836727,-0.008632314603043867,0.7688730601294522,no
USA,7.0,Company contribution attributes : YouTube - Supports jobs growth in [country],0.33054112876915054,0.3294667487964199,-0.0010743799727306325,0.9710882823427158,no
USA,7.0,Company contribution attributes : YouTube - It helps prepare people with the skills needed for the future of work,0.3500655470210001,0.34843797751658506,-0.0016275695044150607,0.9568125299577672,no
USA,7.0,Company contribution attributes : YouTube - Is committed to helping people maintain a healthy use of their products and services,0.3258484823534469,0.33669957811732076,0.010851095763873886,0.7145793413244235,no
USA,7.0,Impact of brand on your life :    Google,0.7218722940931569,0.7257756610105043,0.003903366917347384,0.8268409530209815,no
USA,7.0,Impact of brand on your life :    Apple,0.5446586936573121,0.5357538408943813,-0.008904852762930848,0.8574826972699552,no
USA,7.0,Impact of brand on your life :    Facebook,0.32924855217008736,0.3461328049395856,0.01688425276949823,0.6860828950110172,no
USA,7.0,Impact of brand on your life :    Microsoft,0.6684373518376621,0.6648511365794421,-0.0035862152582200046,0.9347361901541271,no
USA,7.0,Impact of brand on your life :    Amazon,0.7816889003700361,0.7715178746631182,-0.010171025706917969,0.7763098219913431,no
USA,7.0,Impact of brand on your life :    YouTube,0.6513456804732626,0.6433218015387022,-0.008023878934560358,0.8459824852899509,no
USA,7.0,Impact of brand on society :    Google,0.6507452598440898,0.6555578370286542,0.004812577184564404,0.7999942167430658,no
USA,7.0,Impact of brand on society :    Apple,0.5317781848296149,0.5126970750458603,-0.019081109783754657,0.7010290635329421,no
USA,7.0,Impact of brand on society :    Facebook,0.23956273126797628,0.2770210716727175,0.03745834040474122,0.33264371589733943,no
USA,7.0,Impact of brand on society :    Microsoft,0.6623377474326847,0.6621001755738671,-0.0002375718588175646,0.995685731690481,no
USA,7.0,Impact of brand on society :    Amazon,0.6659563682326003,0.6602787319627924,-0.005677636269807884,0.8888616748427121,no
USA,7.0,Impact of brand on society :    YouTube,0.49908932559719194,0.506963596541519,0.007874270944327078,0.8554544600399483,no
