,weight,weight_ccs
,sum,sum
"[16,25)F",0.06523301307842326,0.08499714235801485
"[16,25)M",0.07385841756812751,0.08899695873721583
"[25,35)F",0.061075157035181626,0.10599823904880909
"[25,35)M",0.06191185184388327,0.1090037510331804
"[35,45)F",0.08152661044787668,0.10100314307478353
"[35,45)M",0.08674597730215813,0.0940014435111925
"[45,55)F",0.11454411599125883,0.0930003243163983
"[45,55)M",0.11187331476348238,0.09599611710082014
"[55,Inf]F",0.1992072340717553,0.11500116820199423
"[55,Inf]M",0.144024307897853,0.11200171261759116
1201,0.0009460024098384251,0.0007574331960613475
1202,0.0025813404268459398,0.0023495679877822465
1203,0.011956468524347272,0.010693000344396398
1204,0.2905291814215039,0.2767355205609756
1205,0.3585766965291975,0.3493644721833043
1206,0.20852738816868502,0.22438434043320155
1207,0.10669778630965684,0.12011566657539853
9999,0.02018513620992541,0.015599998718880008
1201.0,0.1774566186455489,0.22299841884040855
1202.0,0.1204869560530644,0.10700046744359741
1203.0,0.18698397874463354,0.20999958490800189
1204.0,0.06871899671467753,0.05600020170879897
1205.0,0.08874779612297713,0.10200002506960006
1206.0,0.11470691639295201,0.0990003818851981
1207.0,0.06312083945645668,0.052000146929599256
1208.0,0.0149135001551004,0.015000183121999052
1209.0,0.07753651880637973,0.0730002744203986
1210.0,0.030512965917334853,0.0170000967115995
1211.0,0.007979786882989783,0.007970602358552866
1212.0,0.018087810188113226,0.01919702670017546
1213.0,0.020827561416606636,0.014588712324138697
1214.0,0.003941953240996313,0.0023030783880239928
1215.0,0.005977801262169132,0.0019407991899078444
