"Weight","Version","Variable","Level","Target","Sampled","Diff","Alignment","Final"
"WEIGHT_MAIN_ISC","0","AGEGEN_FOR_WGT","[16,25)F",0.129822825953368,0.0939373750832778,-0.0358854508700906,0.961945422056005,0.0941059506974095
"WEIGHT_MAIN_ISC","0","AGEGEN_FOR_WGT","[16,25)M",0.142330770420182,0.0846102598267821,-0.0577205105933994,0.938913697687813,0.114723517654897
"WEIGHT_MAIN_ISC","0","AGEGEN_FOR_WGT","[25,35)F",0.16201803756253,0.203864090606262,0.0418460530437323,0.965352849834307,0.212396619594513
"WEIGHT_MAIN_ISC","0","AGEGEN_FOR_WGT","[25,35)M",0.175129380355381,0.231179213857428,0.0560498335020479,0.955928599581794,0.160810115881025
"WEIGHT_MAIN_ISC","0","AGEGEN_FOR_WGT","[35,45)F",0.112093809859872,0.115922718187875,0.00382890832800258,0.995990620938176,0.142465416557868
"WEIGHT_MAIN_ISC","0","AGEGEN_FOR_WGT","[35,45)M",0.114714122960904,0.129247168554297,0.014533045593393,0.985281651432792,0.121749166948385
"WEIGHT_MAIN_ISC","0","AGEGEN_FOR_WGT","[45,55)F",0.0621290762510682,0.0433044636908727,-0.0188246125601954,0.970895624332568,0.0720846806746216
"WEIGHT_MAIN_ISC","0","AGEGEN_FOR_WGT","[45,55)M",0.069783295757281,0.0659560293137908,-0.00382726644349021,0.994805436853653,0.0476054290409753
"WEIGHT_MAIN_ISC","0","AGEGEN_FOR_WGT","[55,70]F",0.00866089273817455,0.00866089273817455,0,1,0.00859427048634244
"WEIGHT_MAIN_ISC","0","AGEGEN_FOR_WGT","[55,70]M",0.0233177881412392,0.0233177881412392,0,1,0.0254648324639628
"WEIGHT_MAIN_ISC","0","EDU_FOR_WGT","High",0.0997211620441611,0.832778147901399,0.733056985857238,0.57801266366535,0.538482461748538
"WEIGHT_MAIN_ISC","0","EDU_FOR_WGT","Low",0.279041286757185,0.0219853431045969,-0.257055943652588,0.731321319807323,0.0659560293137908
"WEIGHT_MAIN_ISC","0","EDU_FOR_WGT","Mid",0.594588650465809,0.118587608261159,-0.47600104220465,0.698256159828459,0.355762824783478
"WEIGHT_MAIN_ISC","0","EDU_FOR_WGT","PNA",0.0266489007328448,0.0266489007328448,0,1,0.0397986841541941
"WEIGHT_MAIN_ISC","0","REG_FOR_WGT","CentralCoast",0.205361812118786,0.205862758161226,0.000500946042440192,0.999609409652002,0.180408189715008
"WEIGHT_MAIN_ISC","0","REG_FOR_WGT","CentralHighlands",0.0565432913446002,0.0566289140572951,8.5622712694966e-05,0.999872740817547,0.0558960692871419
"WEIGHT_MAIN_ISC","0","REG_FOR_WGT","MekongRiver",0.185472480839027,0.18454363757495,-0.000928843264076912,0.999236511568547,0.172728320872369
"WEIGHT_MAIN_ISC","0","REG_FOR_WGT","North",0.132656401401682,0.111259160559627,-0.0213972408420551,0.97831661908222,0.0948785914959714
"WEIGHT_MAIN_ISC","0","REG_FOR_WGT","RedRiver",0.230059481502831,0.241838774150566,0.0117792926477357,0.99142569628665,0.272180829753829
"WEIGHT_MAIN_ISC","0","REG_FOR_WGT","Southeast",0.189906532793075,0.199866755496336,0.00996022270326125,0.99202246947002,0.22390799887568
