"Weight","Version","Variable","Level","Target","Sampled","Diff","Alignment","Final"
"WEIGHT_MAIN_ISC","0","AGEGEN_FOR_WGT","[16,25)F",0.0605379715594631,0.0266311584553928,-0.0339068131040703,0.941413307669543,0.0584505726547444
"WEIGHT_MAIN_ISC","0","AGEGEN_FOR_WGT","[16,25)M",0.063526551267604,0.0352862849533955,-0.0282402663142085,0.954604946173575,0.0636764314262888
"WEIGHT_MAIN_ISC","0","AGEGEN_FOR_WGT","[25,35)F",0.0752159976072986,0.143142476697736,0.0679264790904378,0.926399804401452,0.0772290146644042
"WEIGHT_MAIN_ISC","0","AGEGEN_FOR_WGT","[25,35)M",0.0808932278772436,0.145139813581891,0.0642465857046473,0.931725412768971,0.0827618610200583
"WEIGHT_MAIN_ISC","0","AGEGEN_FOR_WGT","[35,45)F",0.0699954776283663,0.0872170439414115,0.0172215663130451,0.978250290367773,0.0711626293689372
"WEIGHT_MAIN_ISC","0","AGEGEN_FOR_WGT","[35,45)M",0.07291783921329,0.0845539280958722,0.0116360888825822,0.985328561104642,0.0740493527327747
"WEIGHT_MAIN_ISC","0","AGEGEN_FOR_WGT","[45,55)F",0.073890661347025,0.0292942743009321,-0.0445963870460929,0.928813675530661,0.0742826817789725
"WEIGHT_MAIN_ISC","0","AGEGEN_FOR_WGT","[45,55)M",0.0762579592520398,0.0219707057256991,-0.0542872535263407,0.909544601660408,0.0659121171770972
"WEIGHT_MAIN_ISC","0","AGEGEN_FOR_WGT","[55,70]F",0.215712383488682,0.215712383488682,0,1,0.218599079396659
"WEIGHT_MAIN_ISC","0","AGEGEN_FOR_WGT","[55,70]M",0.211051930758988,0.211051930758988,0,1,0.213876259780064
"WEIGHT_MAIN_ISC","0","EDU_FOR_WGT","High",0.241111789465133,0.344873501997337,0.103761712532203,0.931956556048358,0.244863740605349
"WEIGHT_MAIN_ISC","0","EDU_FOR_WGT","Low",0.137696206250836,0.0539280958721704,-0.0837681103786654,0.901818111489922,0.130080664185816
"WEIGHT_MAIN_ISC","0","EDU_FOR_WGT","Mid",0.609873761940489,0.589880159786951,-0.019993602153538,0.990872958211445,0.613819826378361
"WEIGHT_MAIN_ISC","0","EDU_FOR_WGT","PNA",0.0113182423435419,0.0113182423435419,0,1,0.0112357688304741
"WEIGHT_MAIN_ISC","0","REG_FOR_WGT","Atlantic",0.0606662757484844,0.0599201065246338,-0.000746169223850547,0.998925614144018,0.061121617674439
"WEIGHT_MAIN_ISC","0","REG_FOR_WGT","BC",0.137796221097147,0.13115845539281,-0.00663776570433763,0.993599919351591,0.13921316396278
"WEIGHT_MAIN_ISC","0","REG_FOR_WGT","Ontario",0.35852520629874,0.362183754993342,0.00365854869460186,0.997845233167499,0.360975709691617
"WEIGHT_MAIN_ISC","0","REG_FOR_WGT","Prairies",0.201029878421194,0.20439414114514,0.00336426272394541,0.997358145418258,0.201053823173708
"WEIGHT_MAIN_ISC","0","REG_FOR_WGT","Quebec",0.241982418434434,0.242343541944075,0.000361123509640932,0.999740548059698,0.237635685497456
